	

	 Welcome to the DLS compute cluster

	 For MPI jobs, please use 'module load openmpi'.

	 If using a different OpenMPI installation,
	 or manually specifying path to OpenMPI, option
	 '-mca orte_forward_job_control 1'
	 must be added to mpirun to ensure cluster functionality.

	 To use a GPU node, the consumable 'gpu' must be requested,
	 including the number of GPUs required (e.g. 'qrsh -l gpu=2').

	 Grid Engine documentation (e.g. User Guide) can be found in
	 /dls_sw/cluster/docs and on Confluence.

	 Please report any issues to linux.manager@diamond.ac.uk

/dls_sw/cluster/GE/UGE8.6.1/DLS_SCIENCE/spool/cs04r-sc-com09-27/job_scripts/29083801: line 3: ana: command not found
Setting up phenix environment and PATH...
Traceback (most recent call last):
  File "qfit_to_event.py", line 7, in <module>
    import numpy as np
ImportError: No module named numpy
