	

	 Welcome to the DLS compute cluster

	 For MPI jobs, please use 'module load openmpi'.

	 If using a different OpenMPI installation,
	 or manually specifying path to OpenMPI, option
	 '-mca orte_forward_job_control 1'
	 must be added to mpirun to ensure cluster functionality.

	 To use a GPU node, the consumable 'gpu' must be requested,
	 including the number of GPUs required (e.g. 'qrsh -l gpu=2').

	 Grid Engine documentation (e.g. User Guide) can be found in
	 /dls_sw/cluster/docs and on Confluence.

	 Please report any issues to linux.manager@diamond.ac.uk

Setting up phenix environment and PATH...
/dls/science/groups/i04-1/conor_dev/anaconda/lib/python2.7/site-packages/biopandas/pdb/pandas_pdb.py:519: FutureWarning: Sorting because non-concatenation axis is not aligned. A future version
of pandas will change to not sort by default.

To accept the future behavior, pass 'sort=False'.

To retain the current behavior and silence the warning, pass 'sort=True'.

  df = pd.concat(dfs)
qfit_to_event.py:315: FutureWarning: Method .as_matrix will be removed in a future version. Use .values instead.
  sample_by_feature = ligand.df["HETATM"].as_matrix(columns=["x_coord", "y_coord", "z_coord"])
